{
  "cordova-plugin-whitelist": {
    "source": {
      "type": "registry",
      "id": "cordova-plugin-whitelist@^1.3.3"
    },
    "is_top_level": true,
    "variables": {}
  },
  "cordova-plugin-statusbar": {
    "source": {
      "type": "registry",
      "id": "cordova-plugin-statusbar@^2.4.2"
    },
    "is_top_level": true,
    "variables": {}
  },
  "cordova-plugin-device": {
    "source": {
      "type": "registry",
      "id": "cordova-plugin-device@^2.0.2"
    },
    "is_top_level": true,
    "variables": {}
  },
  "cordova-plugin-splashscreen": {
    "source": {
      "type": "registry",
      "id": "cordova-plugin-splashscreen@^5.0.2"
    },
    "is_top_level": true,
    "variables": {}
  },
  "cordova-plugin-ionic-webview": {
    "source": {
      "type": "registry",
      "id": "cordova-plugin-ionic-webview@^4.1.2"
    },
    "is_top_level": true,
    "variables": {
      "ANDROID_SUPPORT_ANNOTATIONS_VERSION": "28.+"
    }
  },
  "cordova-plugin-ionic-keyboard": {
    "source": {
      "type": "registry",
      "id": "cordova-plugin-ionic-keyboard@^2.2.0"
    },
    "is_top_level": true,
    "variables": {}
  },
  "call-number": {
    "source": {
      "type": "registry",
      "id": "mx.ferreyra.callnumber@0.0.2"
    },
    "is_top_level": true,
    "variables": {}
  },
  "cordova-plugin-camera": {
    "source": {
      "type": "registry",
      "id": "cordova-plugin-camera@^4.1.0"
    },
    "is_top_level": true,
    "variables": {
      "ANDROID_SUPPORT_V4_VERSION": "28.+"
    }
  },
  "cordova-plugin-geolocation": {
    "source": {
      "type": "registry",
      "id": "cordova-plugin-geolocation@^4.0.2"
    },
    "is_top_level": true,
    "variables": {}
  },
  "cordova-plugin-request-location-accuracy": {
    "source": {
      "type": "registry",
      "id": "cordova-plugin-request-location-accuracy@^2.3.0"
    },
    "is_top_level": true,
    "variables": {
      "PLAY_SERVICES_LOCATION_VERSION": "16.+"
    }
  },
  "cordova-plugin-android-permissions": {
    "source": {
      "type": "registry",
      "id": "cordova-plugin-android-permissions@^1.0.2"
    },
    "is_top_level": true,
    "variables": {}
  },
  "cordova-sms-plugin": {
    "source": {
      "type": "registry",
      "id": "cordova-sms-plugin@^1.0.0"
    },
    "is_top_level": true,
    "variables": {}
  },
  "cordova-plugin-androidx": {
    "source": {
      "type": "registry",
      "id": "cordova-plugin-androidx@^2.0.0"
    },
    "is_top_level": true,
    "variables": {}
  },
  "cordova-plugin-androidx-adapter": {
    "source": {
      "type": "registry",
      "id": "cordova-plugin-androidx-adapter@^1.1.1"
    },
    "is_top_level": true,
    "variables": {}
  },
  "cordova-plugin-firebasex": {
    "source": {
      "type": "registry",
      "id": "cordova-plugin-firebasex@^10.2.0-cli"
    },
    "is_top_level": true,
    "variables": {
      "FIREBASE_ANALYTICS_COLLECTION_ENABLED": "true",
      "FIREBASE_PERFORMANCE_COLLECTION_ENABLED": "true",
      "FIREBASE_CRASHLYTICS_COLLECTION_ENABLED": "true",
      "ANDROID_ICON_ACCENT": "#FF00FFFF",
      "ANDROID_PLAY_SERVICES_AUTH_VERSION": "18.0.0",
      "ANDROID_FIREBASE_ANALYTICS_VERSION": "17.4.3",
      "ANDROID_FIREBASE_MESSAGING_VERSION": "20.2.1",
      "ANDROID_FIREBASE_CONFIG_VERSION": "19.1.4",
      "ANDROID_FIREBASE_PERF_VERSION": "19.0.7",
      "ANDROID_FIREBASE_AUTH_VERSION": "19.3.1",
      "ANDROID_FIREBASE_FIRESTORE_VERSION": "21.4.3",
      "ANDROID_FIREBASE_CRASHLYTICS_VERSION": "17.0.1",
      "ANDROID_FIREBASE_CRASHLYTICS_NDK_VERSION": "17.0.1",
      "ANDROID_GSON_VERSION": "2.8.6"
    }
  }
}